%!PS-Adobe-3.0 EPSF-3.0
%%Title: data/source/5502.npy.eps
%%Creator: matplotlib version 3.3.4, http://matplotlib.org/
%%CreationDate: Sun Jul  3 20:25:44 2022
%%Orientation: portrait
%%BoundingBox: -51.71143749999999 233.00962500000006 663.7114375 558.990375
%%EndComments
%%BeginProlog
/mpldict 8 dict def
mpldict begin
/m { moveto } bind def
/l { lineto } bind def
/r { rlineto } bind def
/c { curveto } bind def
/cl { closepath } bind def
/box {
      m
      1 index 0 r
      0 exch r
      neg 0 r
      cl
    } bind def
/clipbox {
      box
      clip
      newpath
    } bind def
%!PS-Adobe-3.0 Resource-Font
%%Title: DejaVu Sans
%%Copyright: Copyright (c) 2003 by Bitstream, Inc. All Rights Reserved. Copyright (c) 2006 by Tavmjong Bah. All Rights Reserved. DejaVu changes are in public domain 
%%Creator: Converted from TrueType to type 3 by PPR
25 dict begin
/_d{bind def}bind def
/_m{moveto}_d
/_l{lineto}_d
/_cl{closepath eofill}_d
/_c{curveto}_d
/_sc{7 -1 roll{setcachedevice}{pop pop pop pop pop pop}ifelse}_d
/_e{exec}_d
/FontName /DejaVuSans def
/PaintType 0 def
/FontMatrix[.001 0 0 .001 0 0]def
/FontBBox[-1021 -463 1793 1232]def
/FontType 3 def
/Encoding [ /space /period /slash /zero /one /two /three /five /seven /C /F /O /S /underscore /a /c /d /e /g /h /i /l /m /n /o /p /q /r /s /t /u /v /y /z ] def
/FontInfo 10 dict dup begin
/FamilyName (DejaVu Sans) def
/FullName (DejaVu Sans) def
/Notice (Copyright (c) 2003 by Bitstream, Inc. All Rights Reserved. Copyright (c) 2006 by Tavmjong Bah. All Rights Reserved. DejaVu changes are in public domain ) def
/Weight (Book) def
/Version (Version 2.35) def
/ItalicAngle 0.0 def
/isFixedPitch false def
/UnderlinePosition -130 def
/UnderlineThickness 90 def
end readonly def
/CharStrings 35 dict dup begin
/.notdef 0 def
/space{318 0 0 0 0 0 _sc
}_d
/period{318 0 107 0 210 124 _sc
107 124 _m
210 124 _l
210 0 _l
107 0 _l
107 124 _l
_cl}_d
/slash{337 0 0 -92 337 729 _sc
254 729 _m
337 729 _l
83 -92 _l
0 -92 _l
254 729 _l
_cl}_d
/zero{636 0 66 -13 570 742 _sc
318 664 _m
267 664 229 639 203 589 _c
177 539 165 464 165 364 _c
165 264 177 189 203 139 _c
229 89 267 64 318 64 _c
369 64 407 89 433 139 _c
458 189 471 264 471 364 _c
471 464 458 539 433 589 _c
407 639 369 664 318 664 _c
318 742 _m
399 742 461 709 505 645 _c
548 580 570 486 570 364 _c
570 241 548 147 505 83 _c
461 19 399 -13 318 -13 _c
236 -13 173 19 130 83 _c
87 147 66 241 66 364 _c
66 486 87 580 130 645 _c
173 709 236 742 318 742 _c
_cl}_d
/one{636 0 110 0 544 729 _sc
124 83 _m
285 83 _l
285 639 _l
110 604 _l
110 694 _l
284 729 _l
383 729 _l
383 83 _l
544 83 _l
544 0 _l
124 0 _l
124 83 _l
_cl}_d
/two{{636 0 73 0 536 742 _sc
192 83 _m
536 83 _l
536 0 _l
73 0 _l
73 83 _l
110 121 161 173 226 239 _c
290 304 331 346 348 365 _c
380 400 402 430 414 455 _c
426 479 433 504 433 528 _c
433 566 419 598 392 622 _c
365 646 330 659 286 659 _c
255 659 222 653 188 643 _c
154 632 117 616 78 594 _c
78 694 _l
118 710 155 722 189 730 _c
223 738 255 742 284 742 _c
}_e{359 742 419 723 464 685 _c
509 647 532 597 532 534 _c
532 504 526 475 515 449 _c
504 422 484 390 454 354 _c
446 344 420 317 376 272 _c
332 227 271 164 192 83 _c
_cl}_e}_d
/three{{636 0 76 -13 556 742 _sc
406 393 _m
453 383 490 362 516 330 _c
542 298 556 258 556 212 _c
556 140 531 84 482 45 _c
432 6 362 -13 271 -13 _c
240 -13 208 -10 176 -4 _c
144 1 110 10 76 22 _c
76 117 _l
103 101 133 89 166 81 _c
198 73 232 69 268 69 _c
330 69 377 81 409 105 _c
441 129 458 165 458 212 _c
458 254 443 288 413 312 _c
383 336 341 349 287 349 _c
}_e{202 349 _l
202 430 _l
291 430 _l
339 430 376 439 402 459 _c
428 478 441 506 441 543 _c
441 580 427 609 401 629 _c
374 649 336 659 287 659 _c
260 659 231 656 200 650 _c
169 644 135 635 98 623 _c
98 711 _l
135 721 170 729 203 734 _c
235 739 266 742 296 742 _c
370 742 429 725 473 691 _c
517 657 539 611 539 553 _c
539 513 527 479 504 451 _c
481 423 448 403 406 393 _c
_cl}_e}_d
/five{{636 0 77 -13 549 729 _sc
108 729 _m
495 729 _l
495 646 _l
198 646 _l
198 467 _l
212 472 227 476 241 478 _c
255 480 270 482 284 482 _c
365 482 429 459 477 415 _c
525 370 549 310 549 234 _c
549 155 524 94 475 51 _c
426 8 357 -13 269 -13 _c
238 -13 207 -10 175 -6 _c
143 -1 111 6 77 17 _c
77 116 _l
106 100 136 88 168 80 _c
199 72 232 69 267 69 _c
}_e{323 69 368 83 401 113 _c
433 143 450 183 450 234 _c
450 284 433 324 401 354 _c
368 384 323 399 267 399 _c
241 399 214 396 188 390 _c
162 384 135 375 108 363 _c
108 729 _l
_cl}_e}_d
/seven{636 0 82 0 551 729 _sc
82 729 _m
551 729 _l
551 687 _l
286 0 _l
183 0 _l
432 646 _l
82 646 _l
82 729 _l
_cl}_d
/C{{698 0 56 -13 644 742 _sc
644 673 _m
644 569 _l
610 599 575 622 537 638 _c
499 653 460 661 418 661 _c
334 661 270 635 226 584 _c
182 533 160 460 160 364 _c
160 268 182 194 226 143 _c
270 92 334 67 418 67 _c
460 67 499 74 537 90 _c
575 105 610 128 644 159 _c
644 56 _l
609 32 572 15 534 4 _c
496 -7 455 -13 412 -13 _c
302 -13 215 20 151 87 _c
}_e{87 154 56 246 56 364 _c
56 481 87 573 151 641 _c
215 708 302 742 412 742 _c
456 742 497 736 535 725 _c
573 713 610 696 644 673 _c
_cl}_e}_d
/F{575 0 98 0 517 729 _sc
98 729 _m
517 729 _l
517 646 _l
197 646 _l
197 431 _l
486 431 _l
486 348 _l
197 348 _l
197 0 _l
98 0 _l
98 729 _l
_cl}_d
/O{787 0 56 -13 731 742 _sc
394 662 _m
322 662 265 635 223 582 _c
181 528 160 456 160 364 _c
160 272 181 199 223 146 _c
265 92 322 66 394 66 _c
465 66 522 92 564 146 _c
606 199 627 272 627 364 _c
627 456 606 528 564 582 _c
522 635 465 662 394 662 _c
394 742 _m
496 742 577 707 639 639 _c
700 571 731 479 731 364 _c
731 248 700 157 639 89 _c
577 21 496 -13 394 -13 _c
291 -13 209 21 148 89 _c
86 157 56 248 56 364 _c
56 479 86 571 148 639 _c
209 707 291 742 394 742 _c
_cl}_d
/S{{635 0 66 -13 579 742 _sc
535 705 _m
535 609 _l
497 627 462 640 429 649 _c
395 657 363 662 333 662 _c
279 662 237 651 208 631 _c
179 610 165 580 165 542 _c
165 510 174 485 194 469 _c
213 452 250 439 304 429 _c
364 417 _l
437 403 491 378 526 343 _c
561 307 579 260 579 201 _c
579 130 555 77 508 41 _c
460 5 391 -13 300 -13 _c
265 -13 228 -9 189 -2 _c
}_e{150 5 110 16 69 32 _c
69 134 _l
109 111 148 94 186 83 _c
224 71 262 66 300 66 _c
356 66 399 77 430 99 _c
460 121 476 152 476 194 _c
476 230 465 258 443 278 _c
421 298 385 313 335 323 _c
275 335 _l
201 349 148 372 115 404 _c
82 435 66 478 66 534 _c
66 598 88 649 134 686 _c
179 723 242 742 322 742 _c
356 742 390 739 426 733 _c
461 727 497 717 535 705 _c
}_e{_cl}_e}_d
/underscore{500 0 -9 -235 510 -165 _sc
510 -165 _m
510 -235 _l
-9 -235 _l
-9 -165 _l
510 -165 _l
_cl}_d
/a{{613 0 60 -13 522 560 _sc
343 275 _m
270 275 220 266 192 250 _c
164 233 150 205 150 165 _c
150 133 160 107 181 89 _c
202 70 231 61 267 61 _c
317 61 357 78 387 114 _c
417 149 432 196 432 255 _c
432 275 _l
343 275 _l
522 312 _m
522 0 _l
432 0 _l
432 83 _l
411 49 385 25 355 10 _c
325 -5 287 -13 243 -13 _c
187 -13 142 2 109 33 _c
76 64 60 106 60 159 _c
}_e{60 220 80 266 122 298 _c
163 329 224 345 306 345 _c
432 345 _l
432 354 _l
432 395 418 427 391 450 _c
364 472 326 484 277 484 _c
245 484 215 480 185 472 _c
155 464 127 453 100 439 _c
100 522 _l
132 534 164 544 195 550 _c
226 556 256 560 286 560 _c
365 560 424 539 463 498 _c
502 457 522 395 522 312 _c
_cl}_e}_d
/c{{550 0 55 -13 488 560 _sc
488 526 _m
488 442 _l
462 456 437 466 411 473 _c
385 480 360 484 334 484 _c
276 484 230 465 198 428 _c
166 391 150 339 150 273 _c
150 206 166 154 198 117 _c
230 80 276 62 334 62 _c
360 62 385 65 411 72 _c
437 79 462 90 488 104 _c
488 21 _l
462 9 436 0 410 -5 _c
383 -10 354 -13 324 -13 _c
242 -13 176 12 128 64 _c
}_e{79 115 55 185 55 273 _c
55 362 79 432 128 483 _c
177 534 244 560 330 560 _c
358 560 385 557 411 551 _c
437 545 463 537 488 526 _c
_cl}_e}_d
/d{{635 0 55 -13 544 760 _sc
454 464 _m
454 760 _l
544 760 _l
544 0 _l
454 0 _l
454 82 _l
435 49 411 25 382 10 _c
353 -5 319 -13 279 -13 _c
213 -13 159 13 117 65 _c
75 117 55 187 55 273 _c
55 359 75 428 117 481 _c
159 533 213 560 279 560 _c
319 560 353 552 382 536 _c
411 520 435 496 454 464 _c
148 273 _m
148 207 161 155 188 117 _c
215 79 253 61 301 61 _c
}_e{348 61 385 79 413 117 _c
440 155 454 207 454 273 _c
454 339 440 390 413 428 _c
385 466 348 485 301 485 _c
253 485 215 466 188 428 _c
161 390 148 339 148 273 _c
_cl}_e}_d
/e{{615 0 55 -13 562 560 _sc
562 296 _m
562 252 _l
149 252 _l
153 190 171 142 205 110 _c
238 78 284 62 344 62 _c
378 62 412 66 444 74 _c
476 82 509 95 541 113 _c
541 28 _l
509 14 476 3 442 -3 _c
408 -9 373 -13 339 -13 _c
251 -13 182 12 131 62 _c
80 112 55 181 55 268 _c
55 357 79 428 127 481 _c
175 533 241 560 323 560 _c
397 560 455 536 498 489 _c
}_e{540 441 562 377 562 296 _c
472 322 _m
471 371 457 410 431 440 _c
404 469 368 484 324 484 _c
274 484 234 469 204 441 _c
174 413 156 373 152 322 _c
472 322 _l
_cl}_e}_d
/g{{635 0 55 -207 544 560 _sc
454 280 _m
454 344 440 395 414 431 _c
387 467 349 485 301 485 _c
253 485 215 467 188 431 _c
161 395 148 344 148 280 _c
148 215 161 165 188 129 _c
215 93 253 75 301 75 _c
349 75 387 93 414 129 _c
440 165 454 215 454 280 _c
544 68 _m
544 -24 523 -93 482 -139 _c
440 -184 377 -207 292 -207 _c
260 -207 231 -204 203 -200 _c
175 -195 147 -188 121 -178 _c
}_e{121 -91 _l
147 -105 173 -115 199 -122 _c
225 -129 251 -133 278 -133 _c
336 -133 380 -117 410 -87 _c
439 -56 454 -10 454 52 _c
454 96 _l
435 64 411 40 382 24 _c
353 8 319 0 279 0 _c
211 0 157 25 116 76 _c
75 127 55 195 55 280 _c
55 364 75 432 116 483 _c
157 534 211 560 279 560 _c
319 560 353 552 382 536 _c
411 520 435 496 454 464 _c
454 547 _l
544 547 _l
}_e{544 68 _l
_cl}_e}_d
/h{634 0 91 0 549 760 _sc
549 330 _m
549 0 _l
459 0 _l
459 327 _l
459 379 448 417 428 443 _c
408 469 378 482 338 482 _c
289 482 251 466 223 435 _c
195 404 181 362 181 309 _c
181 0 _l
91 0 _l
91 760 _l
181 760 _l
181 462 _l
202 494 227 519 257 535 _c
286 551 320 560 358 560 _c
420 560 468 540 500 501 _c
532 462 549 405 549 330 _c
_cl}_d
/i{278 0 94 0 184 760 _sc
94 547 _m
184 547 _l
184 0 _l
94 0 _l
94 547 _l
94 760 _m
184 760 _l
184 646 _l
94 646 _l
94 760 _l
_cl}_d
/l{278 0 94 0 184 760 _sc
94 760 _m
184 760 _l
184 0 _l
94 0 _l
94 760 _l
_cl}_d
/m{{974 0 91 0 889 560 _sc
520 442 _m
542 482 569 511 600 531 _c
631 550 668 560 711 560 _c
767 560 811 540 842 500 _c
873 460 889 403 889 330 _c
889 0 _l
799 0 _l
799 327 _l
799 379 789 418 771 444 _c
752 469 724 482 686 482 _c
639 482 602 466 575 435 _c
548 404 535 362 535 309 _c
535 0 _l
445 0 _l
445 327 _l
445 379 435 418 417 444 _c
398 469 369 482 331 482 _c
}_e{285 482 248 466 221 435 _c
194 404 181 362 181 309 _c
181 0 _l
91 0 _l
91 547 _l
181 547 _l
181 462 _l
201 495 226 520 255 536 _c
283 552 317 560 357 560 _c
397 560 430 550 458 530 _c
486 510 506 480 520 442 _c
_cl}_e}_d
/n{634 0 91 0 549 560 _sc
549 330 _m
549 0 _l
459 0 _l
459 327 _l
459 379 448 417 428 443 _c
408 469 378 482 338 482 _c
289 482 251 466 223 435 _c
195 404 181 362 181 309 _c
181 0 _l
91 0 _l
91 547 _l
181 547 _l
181 462 _l
202 494 227 519 257 535 _c
286 551 320 560 358 560 _c
420 560 468 540 500 501 _c
532 462 549 405 549 330 _c
_cl}_d
/o{612 0 55 -13 557 560 _sc
306 484 _m
258 484 220 465 192 427 _c
164 389 150 338 150 273 _c
150 207 163 156 191 118 _c
219 80 257 62 306 62 _c
354 62 392 80 420 118 _c
448 156 462 207 462 273 _c
462 337 448 389 420 427 _c
392 465 354 484 306 484 _c
306 560 _m
384 560 445 534 490 484 _c
534 433 557 363 557 273 _c
557 183 534 113 490 63 _c
445 12 384 -13 306 -13 _c
227 -13 165 12 121 63 _c
77 113 55 183 55 273 _c
55 363 77 433 121 484 _c
165 534 227 560 306 560 _c
_cl}_d
/p{{635 0 91 -207 580 560 _sc
181 82 _m
181 -207 _l
91 -207 _l
91 547 _l
181 547 _l
181 464 _l
199 496 223 520 252 536 _c
281 552 316 560 356 560 _c
422 560 476 533 518 481 _c
559 428 580 359 580 273 _c
580 187 559 117 518 65 _c
476 13 422 -13 356 -13 _c
316 -13 281 -5 252 10 _c
223 25 199 49 181 82 _c
487 273 _m
487 339 473 390 446 428 _c
418 466 381 485 334 485 _c
}_e{286 485 249 466 222 428 _c
194 390 181 339 181 273 _c
181 207 194 155 222 117 _c
249 79 286 61 334 61 _c
381 61 418 79 446 117 _c
473 155 487 207 487 273 _c
_cl}_e}_d
/q{{635 0 55 -207 544 560 _sc
148 273 _m
148 207 161 155 188 117 _c
215 79 253 61 301 61 _c
348 61 385 79 413 117 _c
440 155 454 207 454 273 _c
454 339 440 390 413 428 _c
385 466 348 485 301 485 _c
253 485 215 466 188 428 _c
161 390 148 339 148 273 _c
454 82 _m
435 49 411 25 382 10 _c
353 -5 319 -13 279 -13 _c
213 -13 159 13 117 65 _c
75 117 55 187 55 273 _c
}_e{55 359 75 428 117 481 _c
159 533 213 560 279 560 _c
319 560 353 552 382 536 _c
411 520 435 496 454 464 _c
454 547 _l
544 547 _l
544 -207 _l
454 -207 _l
454 82 _l
_cl}_e}_d
/r{411 0 91 0 411 560 _sc
411 463 _m
401 469 390 473 378 476 _c
366 478 353 480 339 480 _c
288 480 249 463 222 430 _c
194 397 181 350 181 288 _c
181 0 _l
91 0 _l
91 547 _l
181 547 _l
181 462 _l
199 495 224 520 254 536 _c
284 552 321 560 365 560 _c
371 560 378 559 386 559 _c
393 558 401 557 411 555 _c
411 463 _l
_cl}_d
/s{{521 0 54 -13 472 560 _sc
443 531 _m
443 446 _l
417 458 391 468 364 475 _c
336 481 308 485 279 485 _c
234 485 200 478 178 464 _c
156 450 145 430 145 403 _c
145 382 153 366 169 354 _c
185 342 217 330 265 320 _c
296 313 _l
360 299 405 279 432 255 _c
458 230 472 195 472 151 _c
472 100 452 60 412 31 _c
372 1 316 -13 246 -13 _c
216 -13 186 -10 154 -5 _c
}_e{122 0 89 8 54 20 _c
54 113 _l
87 95 120 82 152 74 _c
184 65 216 61 248 61 _c
290 61 323 68 346 82 _c
368 96 380 117 380 144 _c
380 168 371 187 355 200 _c
339 213 303 226 247 238 _c
216 245 _l
160 257 119 275 95 299 _c
70 323 58 356 58 399 _c
58 450 76 490 112 518 _c
148 546 200 560 268 560 _c
301 560 332 557 362 552 _c
391 547 418 540 443 531 _c
}_e{_cl}_e}_d
/t{392 0 27 0 368 702 _sc
183 702 _m
183 547 _l
368 547 _l
368 477 _l
183 477 _l
183 180 _l
183 135 189 106 201 94 _c
213 81 238 75 276 75 _c
368 75 _l
368 0 _l
276 0 _l
206 0 158 13 132 39 _c
106 65 93 112 93 180 _c
93 477 _l
27 477 _l
27 547 _l
93 547 _l
93 702 _l
183 702 _l
_cl}_d
/u{634 0 85 -13 543 560 _sc
85 216 _m
85 547 _l
175 547 _l
175 219 _l
175 167 185 129 205 103 _c
225 77 255 64 296 64 _c
344 64 383 79 411 110 _c
439 141 453 183 453 237 _c
453 547 _l
543 547 _l
543 0 _l
453 0 _l
453 84 _l
431 50 405 26 377 10 _c
348 -5 315 -13 277 -13 _c
214 -13 166 6 134 45 _c
101 83 85 140 85 216 _c
311 560 _m
311 560 _l
_cl}_d
/v{592 0 30 0 562 547 _sc
30 547 _m
125 547 _l
296 88 _l
467 547 _l
562 547 _l
357 0 _l
235 0 _l
30 547 _l
_cl}_d
/y{592 0 30 -207 562 547 _sc
322 -50 _m
296 -114 271 -157 247 -177 _c
223 -197 191 -207 151 -207 _c
79 -207 _l
79 -132 _l
132 -132 _l
156 -132 175 -126 189 -114 _c
203 -102 218 -75 235 -31 _c
251 9 _l
30 547 _l
125 547 _l
296 119 _l
467 547 _l
562 547 _l
322 -50 _l
_cl}_d
/z{525 0 43 0 482 547 _sc
55 547 _m
482 547 _l
482 465 _l
144 72 _l
482 72 _l
482 0 _l
43 0 _l
43 82 _l
381 475 _l
55 475 _l
55 547 _l
_cl}_d
end readonly def

/BuildGlyph
 {exch begin
 CharStrings exch
 2 copy known not{pop /.notdef}if
 true 3 1 roll get exec
 end}_d

/BuildChar {
 1 index /Encoding get exch get
 1 index /BuildGlyph get exec
}_d

FontName currentdict end definefont pop
end
%%EndProlog
mpldict begin
-51.711 233.01 translate
715.423 325.981 0 0 clipbox
gsave
0 0 m
715.422875 0 l
715.422875 325.98075 l
0 325.98075 l
cl
1.000 setgray
fill
grestore
gsave
53.309375 37.54375 m
410.429375 37.54375 l
410.429375 303.65575 l
53.309375 303.65575 l
cl
1.000 setgray
fill
grestore
0.800 setlinewidth
1 setlinejoin
0 setlinecap
[] 0 setdash
0.000 setgray
gsave
/o {
gsave
newpath
translate
0.8 setlinewidth
1 setlinejoin
0 setlinecap
0 0 m
0 -3.5 l

gsave
0.000 setgray
fill
grestore
stroke
grestore
} bind def
69.5421 37.5438 o
grestore
/DejaVuSans findfont
10.000 scalefont
setfont
gsave
61.588977 22.950000 translate
0.000000 rotate
0.000000 0 m /zero glyphshow
6.362305 0 m /period glyphshow
9.541016 0 m /zero glyphshow
grestore
gsave
/o {
gsave
newpath
translate
0.8 setlinewidth
1 setlinejoin
0 setlinecap
0 0 m
0 -3.5 l

gsave
0.000 setgray
fill
grestore
stroke
grestore
} bind def
112.26 37.5438 o
grestore
gsave
104.306681 22.950000 translate
0.000000 rotate
0.000000 0 m /two glyphshow
6.362305 0 m /period glyphshow
9.541016 0 m /five glyphshow
grestore
gsave
/o {
gsave
newpath
translate
0.8 setlinewidth
1 setlinejoin
0 setlinecap
0 0 m
0 -3.5 l

gsave
0.000 setgray
fill
grestore
stroke
grestore
} bind def
154.978 37.5438 o
grestore
gsave
147.024384 22.950000 translate
0.000000 rotate
0.000000 0 m /five glyphshow
6.362305 0 m /period glyphshow
9.541016 0 m /zero glyphshow
grestore
gsave
/o {
gsave
newpath
translate
0.8 setlinewidth
1 setlinejoin
0 setlinecap
0 0 m
0 -3.5 l

gsave
0.000 setgray
fill
grestore
stroke
grestore
} bind def
197.695 37.5438 o
grestore
gsave
189.742087 22.950000 translate
0.000000 rotate
0.000000 0 m /seven glyphshow
6.362305 0 m /period glyphshow
9.541016 0 m /five glyphshow
grestore
gsave
/o {
gsave
newpath
translate
0.8 setlinewidth
1 setlinejoin
0 setlinecap
0 0 m
0 -3.5 l

gsave
0.000 setgray
fill
grestore
stroke
grestore
} bind def
240.413 37.5438 o
grestore
gsave
229.280103 22.950000 translate
0.000000 rotate
0.000000 0 m /one glyphshow
6.362305 0 m /zero glyphshow
12.724609 0 m /period glyphshow
15.903320 0 m /zero glyphshow
grestore
gsave
/o {
gsave
newpath
translate
0.8 setlinewidth
1 setlinejoin
0 setlinecap
0 0 m
0 -3.5 l

gsave
0.000 setgray
fill
grestore
stroke
grestore
} bind def
283.131 37.5438 o
grestore
gsave
271.997807 22.950000 translate
0.000000 rotate
0.000000 0 m /one glyphshow
6.362305 0 m /two glyphshow
12.724609 0 m /period glyphshow
15.903320 0 m /five glyphshow
grestore
gsave
/o {
gsave
newpath
translate
0.8 setlinewidth
1 setlinejoin
0 setlinecap
0 0 m
0 -3.5 l

gsave
0.000 setgray
fill
grestore
stroke
grestore
} bind def
325.848 37.5438 o
grestore
gsave
314.715510 22.950000 translate
0.000000 rotate
0.000000 0 m /one glyphshow
6.362305 0 m /five glyphshow
12.724609 0 m /period glyphshow
15.903320 0 m /zero glyphshow
grestore
gsave
/o {
gsave
newpath
translate
0.8 setlinewidth
1 setlinejoin
0 setlinecap
0 0 m
0 -3.5 l

gsave
0.000 setgray
fill
grestore
stroke
grestore
} bind def
368.566 37.5438 o
grestore
gsave
357.433213 22.950000 translate
0.000000 rotate
0.000000 0 m /one glyphshow
6.362305 0 m /seven glyphshow
12.724609 0 m /period glyphshow
15.903320 0 m /five glyphshow
grestore
gsave
216.635000 9.278125 translate
0.000000 rotate
0.000000 0 m /e glyphshow
6.152344 0 m /p glyphshow
12.500000 0 m /o glyphshow
18.618164 0 m /c glyphshow
24.116211 0 m /h glyphshow
grestore
gsave
/o {
gsave
newpath
translate
0.8 setlinewidth
1 setlinejoin
0 setlinecap
-0 0 m
-3.5 0 l

gsave
0.000 setgray
fill
grestore
stroke
grestore
} bind def
53.3094 49.6396 o
grestore
gsave
39.950000 45.842722 translate
0.000000 rotate
0.000000 0 m /zero glyphshow
grestore
gsave
/o {
gsave
newpath
translate
0.8 setlinewidth
1 setlinejoin
0 setlinecap
-0 0 m
-3.5 0 l

gsave
0.000 setgray
fill
grestore
stroke
grestore
} bind def
53.3094 83.3632 o
grestore
gsave
27.231250 79.566369 translate
0.000000 rotate
0.000000 0 m /five glyphshow
6.362305 0 m /zero glyphshow
12.724609 0 m /zero glyphshow
grestore
gsave
/o {
gsave
newpath
translate
0.8 setlinewidth
1 setlinejoin
0 setlinecap
-0 0 m
-3.5 0 l

gsave
0.000 setgray
fill
grestore
stroke
grestore
} bind def
53.3094 117.087 o
grestore
gsave
20.871875 113.290015 translate
0.000000 rotate
0.000000 0 m /one glyphshow
6.362305 0 m /zero glyphshow
12.724609 0 m /zero glyphshow
19.086914 0 m /zero glyphshow
grestore
gsave
/o {
gsave
newpath
translate
0.8 setlinewidth
1 setlinejoin
0 setlinecap
-0 0 m
-3.5 0 l

gsave
0.000 setgray
fill
grestore
stroke
grestore
} bind def
53.3094 150.811 o
grestore
gsave
20.871875 147.013662 translate
0.000000 rotate
0.000000 0 m /one glyphshow
6.362305 0 m /five glyphshow
12.724609 0 m /zero glyphshow
19.086914 0 m /zero glyphshow
grestore
gsave
/o {
gsave
newpath
translate
0.8 setlinewidth
1 setlinejoin
0 setlinecap
-0 0 m
-3.5 0 l

gsave
0.000 setgray
fill
grestore
stroke
grestore
} bind def
53.3094 184.534 o
grestore
gsave
20.871875 180.737309 translate
0.000000 rotate
0.000000 0 m /two glyphshow
6.362305 0 m /zero glyphshow
12.724609 0 m /zero glyphshow
19.086914 0 m /zero glyphshow
grestore
gsave
/o {
gsave
newpath
translate
0.8 setlinewidth
1 setlinejoin
0 setlinecap
-0 0 m
-3.5 0 l

gsave
0.000 setgray
fill
grestore
stroke
grestore
} bind def
53.3094 218.258 o
grestore
gsave
20.871875 214.460956 translate
0.000000 rotate
0.000000 0 m /two glyphshow
6.362305 0 m /five glyphshow
12.724609 0 m /zero glyphshow
19.086914 0 m /zero glyphshow
grestore
gsave
/o {
gsave
newpath
translate
0.8 setlinewidth
1 setlinejoin
0 setlinecap
-0 0 m
-3.5 0 l

gsave
0.000 setgray
fill
grestore
stroke
grestore
} bind def
53.3094 251.981 o
grestore
gsave
20.871875 248.184602 translate
0.000000 rotate
0.000000 0 m /three glyphshow
6.362305 0 m /zero glyphshow
12.724609 0 m /zero glyphshow
19.086914 0 m /zero glyphshow
grestore
gsave
/o {
gsave
newpath
translate
0.8 setlinewidth
1 setlinejoin
0 setlinecap
-0 0 m
-3.5 0 l

gsave
0.000 setgray
fill
grestore
stroke
grestore
} bind def
53.3094 285.705 o
grestore
gsave
20.871875 281.908249 translate
0.000000 rotate
0.000000 0 m /three glyphshow
6.362305 0 m /five glyphshow
12.724609 0 m /zero glyphshow
19.086914 0 m /zero glyphshow
grestore
gsave
14.793750 154.326313 translate
90.000000 rotate
0.000000 0 m /v glyphshow
5.917969 0 m /a glyphshow
12.045898 0 m /l glyphshow
14.824219 0 m /u glyphshow
21.162109 0 m /e glyphshow
27.314453 0 m /s glyphshow
grestore
1.500 setlinewidth
2 setlinecap
0.122 0.467 0.706 setrgbcolor
gsave
357.1 266.1 53.31 37.54 clipbox
69.542102 49.918445 m
86.629184 291.55975 l
103.716265 49.928852 l
120.803346 49.877827 l
137.890428 49.853794 l
154.977509 49.847161 l
172.06459 49.817038 l
189.151672 49.766044 l
206.238753 49.723046 l
223.325834 49.699098 l
240.412916 49.684946 l
257.499997 49.67871 l
274.587078 49.680446 l
291.67416 49.680304 l
308.761241 49.677394 l
325.848322 49.664287 l
342.935404 49.660176 l
360.022485 49.660876 l
377.109566 49.659973 l
394.196648 49.657432 l
stroke
grestore
1.000 0.498 0.055 setrgbcolor
gsave
357.1 266.1 53.31 37.54 clipbox
69.542102 49.674547 m
86.629184 49.732786 l
103.716265 49.662658 l
120.803346 49.660677 l
137.890428 49.660854 l
154.977509 49.66165 l
172.06459 49.658922 l
189.151672 49.658781 l
206.238753 49.659194 l
223.325834 49.658866 l
240.412916 49.658395 l
257.499997 49.658851 l
274.587078 49.658343 l
291.67416 49.661676 l
308.761241 49.659289 l
325.848322 49.657041 l
342.935404 49.656086 l
360.022485 49.656692 l
377.109566 49.656159 l
394.196648 49.656128 l
stroke
grestore
0.173 0.627 0.173 setrgbcolor
gsave
357.1 266.1 53.31 37.54 clipbox
69.542102 49.64235 m
86.629184 52.058703 l
103.716265 49.642466 l
120.803346 49.641958 l
137.890428 49.641718 l
154.977509 49.64165 l
172.06459 49.641352 l
189.151672 49.640842 l
206.238753 49.640412 l
223.325834 49.640173 l
240.412916 49.640032 l
257.499997 49.639969 l
274.587078 49.639987 l
291.67416 49.639982 l
308.761241 49.639955 l
325.848322 49.639826 l
342.935404 49.639786 l
360.022485 49.639793 l
377.109566 49.639784 l
394.196648 49.639759 l
stroke
grestore
0.839 0.153 0.157 setrgbcolor
gsave
357.1 266.1 53.31 37.54 clipbox
69.542102 49.685983 m
86.629184 49.690634 l
103.716265 49.696935 l
120.803346 49.69776 l
137.890428 49.697918 l
154.977509 49.697075 l
172.06459 49.698848 l
189.151672 49.698918 l
206.238753 49.698708 l
223.325834 49.699059 l
240.412916 49.699287 l
257.499997 49.698795 l
274.587078 49.699076 l
291.67416 49.696654 l
308.761241 49.697953 l
325.848322 49.699638 l
342.935404 49.700094 l
360.022485 49.699638 l
377.109566 49.700112 l
394.196648 49.700006 l
stroke
grestore
0.580 0.404 0.741 setrgbcolor
gsave
357.1 266.1 53.31 37.54 clipbox
69.542102 49.652304 m
86.629184 49.651448 l
103.716265 49.64779 l
120.803346 49.647491 l
137.890428 49.647541 l
154.977509 49.648121 l
172.06459 49.646814 l
189.151672 49.64668 l
206.238753 49.646942 l
223.325834 49.646703 l
240.412916 49.646528 l
257.499997 49.646851 l
274.587078 49.646593 l
291.67416 49.647944 l
308.761241 49.646565 l
325.848322 49.645862 l
342.935404 49.64545 l
360.022485 49.645846 l
377.109566 49.64548 l
394.196648 49.64542 l
stroke
grestore
0.549 0.337 0.294 setrgbcolor
gsave
357.1 266.1 53.31 37.54 clipbox
69.542102 49.664185 m
86.629184 49.662518 l
103.716265 49.664466 l
120.803346 49.664519 l
137.890428 49.664466 l
154.977509 49.664484 l
172.06459 49.664449 l
189.151672 49.664431 l
206.238753 49.664484 l
223.325834 49.664501 l
240.412916 49.664466 l
257.499997 49.664519 l
274.587078 49.664501 l
291.67416 49.664449 l
308.761241 49.664501 l
325.848322 49.664484 l
342.935404 49.664484 l
360.022485 49.664484 l
377.109566 49.664501 l
394.196648 49.664484 l
stroke
grestore
0.890 0.467 0.761 setrgbcolor
gsave
357.1 266.1 53.31 37.54 clipbox
69.542102 49.64235 m
86.629184 52.058703 l
103.716265 49.642466 l
120.803346 49.641958 l
137.890428 49.641718 l
154.977509 49.64165 l
172.06459 49.641352 l
189.151672 49.640842 l
206.238753 49.640412 l
223.325834 49.640173 l
240.412916 49.640032 l
257.499997 49.639969 l
274.587078 49.639987 l
291.67416 49.639982 l
308.761241 49.639955 l
325.848322 49.639826 l
342.935404 49.639786 l
360.022485 49.639793 l
377.109566 49.639784 l
394.196648 49.639759 l
stroke
grestore
0.498 setgray
gsave
357.1 266.1 53.31 37.54 clipbox
69.542102 49.71041 m
86.629184 50.372792 l
103.716265 49.855291 l
120.803346 50.009331 l
137.890428 49.850657 l
154.977509 49.823232 l
172.06459 49.78186 l
189.151672 49.736344 l
206.238753 49.693307 l
223.325834 49.701857 l
240.412916 49.683426 l
257.499997 49.678087 l
274.587078 49.684217 l
291.67416 49.668999 l
308.761241 49.709732 l
325.848322 49.657354 l
342.935404 49.656699 l
360.022485 49.659304 l
377.109566 49.666714 l
394.196648 49.659401 l
stroke
grestore
0.737 0.741 0.133 setrgbcolor
gsave
357.1 266.1 53.31 37.54 clipbox
69.542102 49.666544 m
86.629184 49.660165 l
103.716265 49.663226 l
120.803346 49.656123 l
137.890428 49.661774 l
154.977509 49.661442 l
172.06459 49.658902 l
189.151672 49.655775 l
206.238753 49.655942 l
223.325834 49.657134 l
240.412916 49.662326 l
257.499997 49.660054 l
274.587078 49.661849 l
291.67416 49.66398 l
308.761241 49.65839 l
325.848322 49.654958 l
342.935404 49.657518 l
360.022485 49.655821 l
377.109566 49.655357 l
394.196648 49.658821 l
stroke
grestore
0.090 0.745 0.812 setrgbcolor
gsave
357.1 266.1 53.31 37.54 clipbox
69.542102 49.640278 m
86.629184 49.646908 l
103.716265 49.64173 l
120.803346 49.643278 l
137.890428 49.641685 l
154.977509 49.641411 l
172.06459 49.641 l
189.151672 49.640548 l
206.238753 49.640118 l
223.325834 49.640202 l
240.412916 49.640012 l
257.499997 49.639961 l
274.587078 49.640021 l
291.67416 49.639867 l
308.761241 49.640279 l
325.848322 49.639759 l
342.935404 49.63975 l
360.022485 49.639778 l
377.109566 49.639852 l
394.196648 49.639776 l
stroke
grestore
0.122 0.467 0.706 setrgbcolor
gsave
357.1 266.1 53.31 37.54 clipbox
69.542102 49.692638 m
86.629184 49.698122 l
103.716265 49.695175 l
120.803346 49.699514 l
137.890428 49.697058 l
154.977509 49.69714 l
172.06459 49.698531 l
189.151672 49.700578 l
206.238753 49.700005 l
223.325834 49.699677 l
240.412916 49.696894 l
257.499997 49.69804 l
274.587078 49.697877 l
291.67416 49.692311 l
308.761241 49.698777 l
325.848322 49.700741 l
342.935404 49.699432 l
360.022485 49.699923 l
377.109566 49.699596 l
394.196648 49.698777 l
stroke
grestore
1.000 0.498 0.055 setrgbcolor
gsave
357.1 266.1 53.31 37.54 clipbox
69.542102 49.648849 m
86.629184 49.646356 l
103.716265 49.649005 l
120.803346 49.645599 l
137.890428 49.64852 l
154.977509 49.648382 l
172.06459 49.647164 l
189.151672 49.645286 l
206.238753 49.645396 l
223.325834 49.645808 l
240.412916 49.648769 l
257.499997 49.647609 l
274.587078 49.648241 l
291.67416 49.648577 l
308.761241 49.64662 l
325.848322 49.644819 l
342.935404 49.646427 l
360.022485 49.645256 l
377.109566 49.645123 l
394.196648 49.647044 l
stroke
grestore
0.173 0.627 0.173 setrgbcolor
gsave
357.1 266.1 53.31 37.54 clipbox
69.542102 49.66358 m
86.629184 49.66358 l
103.716265 49.66358 l
120.803346 49.66358 l
137.890428 49.66358 l
154.977509 49.66358 l
172.06459 49.66358 l
189.151672 49.66358 l
206.238753 49.66358 l
223.325834 49.66358 l
240.412916 49.66358 l
257.499997 49.66358 l
274.587078 49.66358 l
291.67416 49.66358 l
308.761241 49.66358 l
325.848322 49.66358 l
342.935404 49.66358 l
360.022485 49.66358 l
377.109566 49.66358 l
394.196648 49.66358 l
stroke
grestore
0.839 0.153 0.157 setrgbcolor
gsave
357.1 266.1 53.31 37.54 clipbox
69.542102 49.640278 m
86.629184 49.646908 l
103.716265 49.64173 l
120.803346 49.643278 l
137.890428 49.641685 l
154.977509 49.641411 l
172.06459 49.641 l
189.151672 49.640548 l
206.238753 49.640118 l
223.325834 49.640202 l
240.412916 49.640012 l
257.499997 49.639961 l
274.587078 49.640021 l
291.67416 49.639867 l
308.761241 49.640279 l
325.848322 49.639759 l
342.935404 49.63975 l
360.022485 49.639778 l
377.109566 49.639852 l
394.196648 49.639776 l
stroke
grestore
0.800 setlinewidth
0 setlinejoin
0.000 setgray
gsave
53.309375 37.54375 m
53.309375 303.65575 l
stroke
grestore
gsave
410.429375 37.54375 m
410.429375 303.65575 l
stroke
grestore
gsave
53.309375 37.54375 m
410.429375 37.54375 l
stroke
grestore
gsave
53.309375 303.65575 m
410.429375 303.65575 l
stroke
grestore
/DejaVuSans findfont
12.000 scalefont
setfont
gsave
145.408438 309.655750 translate
0.000000 rotate
0.000000 0 m /m glyphshow
11.689453 0 m /o glyphshow
19.031250 0 m /d glyphshow
26.648438 0 m /e glyphshow
34.031250 0 m /l glyphshow
37.365234 0 m /space glyphshow
41.179688 0 m /d glyphshow
48.796875 0 m /a glyphshow
56.150391 0 m /t glyphshow
60.855469 0 m /a glyphshow
68.208984 0 m /slash glyphshow
72.251953 0 m /s glyphshow
78.503906 0 m /o glyphshow
85.845703 0 m /u glyphshow
93.451172 0 m /r glyphshow
98.134766 0 m /c glyphshow
104.732422 0 m /e glyphshow
112.115234 0 m /slash glyphshow
116.158203 0 m /five glyphshow
123.792969 0 m /five glyphshow
131.427734 0 m /zero glyphshow
139.062500 0 m /two glyphshow
146.697266 0 m /period glyphshow
150.511719 0 m /n glyphshow
158.117188 0 m /p glyphshow
165.734375 0 m /y glyphshow
grestore
1.000 setlinewidth
0 setlinecap
0.800 setgray
gsave
435.285375 86.59325 m
706.222875 86.59325 l
707.556208 86.59325 708.222875 87.259917 708.222875 88.59325 c
708.222875 296.65575 l
708.222875 297.989083 707.556208 298.65575 706.222875 298.65575 c
435.285375 298.65575 l
433.952042 298.65575 433.285375 297.989083 433.285375 296.65575 c
433.285375 88.59325 l
433.285375 87.259917 433.952042 86.59325 435.285375 86.59325 c
cl
gsave
1.000 setgray
fill
grestore
stroke
grestore
1.500 setlinewidth
1 setlinejoin
2 setlinecap
0.122 0.467 0.706 setrgbcolor
gsave
437.285375 290.562 m
457.285375 290.562 l
stroke
grestore
0.000 setgray
/DejaVuSans findfont
10.000 scalefont
setfont
gsave
465.285375 287.062000 translate
0.000000 rotate
0.000000 0 m /l glyphshow
2.778320 0 m /o glyphshow
8.896484 0 m /s glyphshow
14.106445 0 m /s glyphshow
grestore
1.000 0.498 0.055 setrgbcolor
gsave
437.285375 275.890125 m
457.285375 275.890125 l
stroke
grestore
0.000 setgray
gsave
465.285375 272.390125 translate
0.000000 rotate
0.000000 0 m /S glyphshow
6.347656 0 m /i glyphshow
9.125977 0 m /g glyphshow
15.473633 0 m /n glyphshow
21.811523 0 m /a glyphshow
27.939453 0 m /l glyphshow
30.717773 0 m /F glyphshow
35.719727 0 m /i glyphshow
38.498047 0 m /n glyphshow
44.835938 0 m /d glyphshow
51.183594 0 m /e glyphshow
57.335938 0 m /r glyphshow
61.447266 0 m /O glyphshow
69.318359 0 m /u glyphshow
75.656250 0 m /t glyphshow
79.577148 0 m /p glyphshow
85.924805 0 m /u glyphshow
92.262695 0 m /t glyphshow
96.183594 0 m /underscore glyphshow
101.183594 0 m /l glyphshow
103.961914 0 m /o glyphshow
110.080078 0 m /s glyphshow
115.290039 0 m /s glyphshow
grestore
0.173 0.627 0.173 setrgbcolor
gsave
437.285375 260.937 m
457.285375 260.937 l
stroke
grestore
0.000 setgray
gsave
465.285375 257.437000 translate
0.000000 rotate
0.000000 0 m /C glyphshow
6.982422 0 m /a glyphshow
13.110352 0 m /r glyphshow
17.221680 0 m /a glyphshow
23.349609 0 m /c glyphshow
28.847656 0 m /t glyphshow
32.768555 0 m /e glyphshow
38.920898 0 m /r glyphshow
43.032227 0 m /i glyphshow
45.810547 0 m /z glyphshow
51.059570 0 m /a glyphshow
57.187500 0 m /t glyphshow
61.108398 0 m /i glyphshow
63.886719 0 m /o glyphshow
70.004883 0 m /n glyphshow
76.342773 0 m /O glyphshow
84.213867 0 m /u glyphshow
90.551758 0 m /t glyphshow
94.472656 0 m /p glyphshow
100.820312 0 m /u glyphshow
107.158203 0 m /t glyphshow
111.079102 0 m /underscore glyphshow
116.079102 0 m /l glyphshow
118.857422 0 m /o glyphshow
124.975586 0 m /s glyphshow
130.185547 0 m /s glyphshow
grestore
0.839 0.153 0.157 setrgbcolor
gsave
437.285375 245.983875 m
457.285375 245.983875 l
stroke
grestore
0.000 setgray
gsave
465.285375 242.483875 translate
0.000000 rotate
0.000000 0 m /S glyphshow
6.347656 0 m /i glyphshow
9.125977 0 m /g glyphshow
15.473633 0 m /n glyphshow
21.811523 0 m /a glyphshow
27.939453 0 m /l glyphshow
30.717773 0 m /F glyphshow
35.719727 0 m /i glyphshow
38.498047 0 m /n glyphshow
44.835938 0 m /d glyphshow
51.183594 0 m /e glyphshow
57.335938 0 m /r glyphshow
61.447266 0 m /O glyphshow
69.318359 0 m /u glyphshow
75.656250 0 m /t glyphshow
79.577148 0 m /p glyphshow
85.924805 0 m /u glyphshow
92.262695 0 m /t glyphshow
96.183594 0 m /underscore glyphshow
101.183594 0 m /a glyphshow
107.311523 0 m /c glyphshow
112.809570 0 m /c glyphshow
118.307617 0 m /u glyphshow
124.645508 0 m /r glyphshow
128.756836 0 m /a glyphshow
134.884766 0 m /c glyphshow
140.382812 0 m /y glyphshow
grestore
0.580 0.404 0.741 setrgbcolor
gsave
437.285375 231.03075 m
457.285375 231.03075 l
stroke
grestore
0.000 setgray
gsave
465.285375 227.530750 translate
0.000000 rotate
0.000000 0 m /S glyphshow
6.347656 0 m /i glyphshow
9.125977 0 m /g glyphshow
15.473633 0 m /n glyphshow
21.811523 0 m /a glyphshow
27.939453 0 m /l glyphshow
30.717773 0 m /F glyphshow
35.719727 0 m /i glyphshow
38.498047 0 m /n glyphshow
44.835938 0 m /d glyphshow
51.183594 0 m /e glyphshow
57.335938 0 m /r glyphshow
61.447266 0 m /O glyphshow
69.318359 0 m /u glyphshow
75.656250 0 m /t glyphshow
79.577148 0 m /p glyphshow
85.924805 0 m /u glyphshow
92.262695 0 m /t glyphshow
96.183594 0 m /underscore glyphshow
101.183594 0 m /m glyphshow
110.924805 0 m /e glyphshow
117.077148 0 m /a glyphshow
123.205078 0 m /n glyphshow
129.542969 0 m /underscore glyphshow
134.542969 0 m /s glyphshow
139.752930 0 m /q glyphshow
146.100586 0 m /u glyphshow
152.438477 0 m /a glyphshow
158.566406 0 m /r glyphshow
162.427734 0 m /e glyphshow
168.580078 0 m /d glyphshow
174.927734 0 m /underscore glyphshow
179.927734 0 m /e glyphshow
186.080078 0 m /r glyphshow
190.066406 0 m /r glyphshow
193.927734 0 m /o glyphshow
200.045898 0 m /r glyphshow
grestore
0.549 0.337 0.294 setrgbcolor
gsave
437.285375 216.077625 m
457.285375 216.077625 l
stroke
grestore
0.000 setgray
gsave
465.285375 212.577625 translate
0.000000 rotate
0.000000 0 m /C glyphshow
6.982422 0 m /a glyphshow
13.110352 0 m /r glyphshow
17.221680 0 m /a glyphshow
23.349609 0 m /c glyphshow
28.847656 0 m /t glyphshow
32.768555 0 m /e glyphshow
38.920898 0 m /r glyphshow
43.032227 0 m /i glyphshow
45.810547 0 m /z glyphshow
51.059570 0 m /a glyphshow
57.187500 0 m /t glyphshow
61.108398 0 m /i glyphshow
63.886719 0 m /o glyphshow
70.004883 0 m /n glyphshow
76.342773 0 m /O glyphshow
84.213867 0 m /u glyphshow
90.551758 0 m /t glyphshow
94.472656 0 m /p glyphshow
100.820312 0 m /u glyphshow
107.158203 0 m /t glyphshow
111.079102 0 m /underscore glyphshow
116.079102 0 m /a glyphshow
122.207031 0 m /c glyphshow
127.705078 0 m /c glyphshow
133.203125 0 m /u glyphshow
139.541016 0 m /r glyphshow
143.652344 0 m /a glyphshow
149.780273 0 m /c glyphshow
155.278320 0 m /y glyphshow
grestore
0.890 0.467 0.761 setrgbcolor
gsave
437.285375 201.1245 m
457.285375 201.1245 l
stroke
grestore
0.000 setgray
gsave
465.285375 197.624500 translate
0.000000 rotate
0.000000 0 m /C glyphshow
6.982422 0 m /a glyphshow
13.110352 0 m /r glyphshow
17.221680 0 m /a glyphshow
23.349609 0 m /c glyphshow
28.847656 0 m /t glyphshow
32.768555 0 m /e glyphshow
38.920898 0 m /r glyphshow
43.032227 0 m /i glyphshow
45.810547 0 m /z glyphshow
51.059570 0 m /a glyphshow
57.187500 0 m /t glyphshow
61.108398 0 m /i glyphshow
63.886719 0 m /o glyphshow
70.004883 0 m /n glyphshow
76.342773 0 m /O glyphshow
84.213867 0 m /u glyphshow
90.551758 0 m /t glyphshow
94.472656 0 m /p glyphshow
100.820312 0 m /u glyphshow
107.158203 0 m /t glyphshow
111.079102 0 m /underscore glyphshow
116.079102 0 m /m glyphshow
125.820312 0 m /e glyphshow
131.972656 0 m /a glyphshow
138.100586 0 m /n glyphshow
144.438477 0 m /underscore glyphshow
149.438477 0 m /s glyphshow
154.648438 0 m /q glyphshow
160.996094 0 m /u glyphshow
167.333984 0 m /a glyphshow
173.461914 0 m /r glyphshow
177.323242 0 m /e glyphshow
183.475586 0 m /d glyphshow
189.823242 0 m /underscore glyphshow
194.823242 0 m /e glyphshow
200.975586 0 m /r glyphshow
204.961914 0 m /r glyphshow
208.823242 0 m /o glyphshow
214.941406 0 m /r glyphshow
grestore
0.498 setgray
gsave
437.285375 186.171375 m
457.285375 186.171375 l
stroke
grestore
0.000 setgray
gsave
465.285375 182.671375 translate
0.000000 rotate
0.000000 0 m /v glyphshow
5.917969 0 m /a glyphshow
12.045898 0 m /l glyphshow
14.824219 0 m /underscore glyphshow
19.824219 0 m /l glyphshow
22.602539 0 m /o glyphshow
28.720703 0 m /s glyphshow
33.930664 0 m /s glyphshow
grestore
0.737 0.741 0.133 setrgbcolor
gsave
437.285375 171.21825 m
457.285375 171.21825 l
stroke
grestore
0.000 setgray
gsave
465.285375 167.718250 translate
0.000000 rotate
0.000000 0 m /v glyphshow
5.917969 0 m /a glyphshow
12.045898 0 m /l glyphshow
14.824219 0 m /underscore glyphshow
19.824219 0 m /S glyphshow
26.171875 0 m /i glyphshow
28.950195 0 m /g glyphshow
35.297852 0 m /n glyphshow
41.635742 0 m /a glyphshow
47.763672 0 m /l glyphshow
50.541992 0 m /F glyphshow
55.543945 0 m /i glyphshow
58.322266 0 m /n glyphshow
64.660156 0 m /d glyphshow
71.007812 0 m /e glyphshow
77.160156 0 m /r glyphshow
81.271484 0 m /O glyphshow
89.142578 0 m /u glyphshow
95.480469 0 m /t glyphshow
99.401367 0 m /p glyphshow
105.749023 0 m /u glyphshow
112.086914 0 m /t glyphshow
116.007812 0 m /underscore glyphshow
121.007812 0 m /l glyphshow
123.786133 0 m /o glyphshow
129.904297 0 m /s glyphshow
135.114258 0 m /s glyphshow
grestore
0.090 0.745 0.812 setrgbcolor
gsave
437.285375 156.265125 m
457.285375 156.265125 l
stroke
grestore
0.000 setgray
gsave
465.285375 152.765125 translate
0.000000 rotate
0.000000 0 m /v glyphshow
5.917969 0 m /a glyphshow
12.045898 0 m /l glyphshow
14.824219 0 m /underscore glyphshow
19.824219 0 m /C glyphshow
26.806641 0 m /a glyphshow
32.934570 0 m /r glyphshow
37.045898 0 m /a glyphshow
43.173828 0 m /c glyphshow
48.671875 0 m /t glyphshow
52.592773 0 m /e glyphshow
58.745117 0 m /r glyphshow
62.856445 0 m /i glyphshow
65.634766 0 m /z glyphshow
70.883789 0 m /a glyphshow
77.011719 0 m /t glyphshow
80.932617 0 m /i glyphshow
83.710938 0 m /o glyphshow
89.829102 0 m /n glyphshow
96.166992 0 m /O glyphshow
104.038086 0 m /u glyphshow
110.375977 0 m /t glyphshow
114.296875 0 m /p glyphshow
120.644531 0 m /u glyphshow
126.982422 0 m /t glyphshow
130.903320 0 m /underscore glyphshow
135.903320 0 m /l glyphshow
138.681641 0 m /o glyphshow
144.799805 0 m /s glyphshow
150.009766 0 m /s glyphshow
grestore
0.122 0.467 0.706 setrgbcolor
gsave
437.285375 141.312 m
457.285375 141.312 l
stroke
grestore
0.000 setgray
gsave
465.285375 137.812000 translate
0.000000 rotate
0.000000 0 m /v glyphshow
5.917969 0 m /a glyphshow
12.045898 0 m /l glyphshow
14.824219 0 m /underscore glyphshow
19.824219 0 m /S glyphshow
26.171875 0 m /i glyphshow
28.950195 0 m /g glyphshow
35.297852 0 m /n glyphshow
41.635742 0 m /a glyphshow
47.763672 0 m /l glyphshow
50.541992 0 m /F glyphshow
55.543945 0 m /i glyphshow
58.322266 0 m /n glyphshow
64.660156 0 m /d glyphshow
71.007812 0 m /e glyphshow
77.160156 0 m /r glyphshow
81.271484 0 m /O glyphshow
89.142578 0 m /u glyphshow
95.480469 0 m /t glyphshow
99.401367 0 m /p glyphshow
105.749023 0 m /u glyphshow
112.086914 0 m /t glyphshow
116.007812 0 m /underscore glyphshow
121.007812 0 m /a glyphshow
127.135742 0 m /c glyphshow
132.633789 0 m /c glyphshow
138.131836 0 m /u glyphshow
144.469727 0 m /r glyphshow
148.581055 0 m /a glyphshow
154.708984 0 m /c glyphshow
160.207031 0 m /y glyphshow
grestore
1.000 0.498 0.055 setrgbcolor
gsave
437.285375 126.358875 m
457.285375 126.358875 l
stroke
grestore
0.000 setgray
gsave
465.285375 122.858875 translate
0.000000 rotate
0.000000 0 m /v glyphshow
5.917969 0 m /a glyphshow
12.045898 0 m /l glyphshow
14.824219 0 m /underscore glyphshow
19.824219 0 m /S glyphshow
26.171875 0 m /i glyphshow
28.950195 0 m /g glyphshow
35.297852 0 m /n glyphshow
41.635742 0 m /a glyphshow
47.763672 0 m /l glyphshow
50.541992 0 m /F glyphshow
55.543945 0 m /i glyphshow
58.322266 0 m /n glyphshow
64.660156 0 m /d glyphshow
71.007812 0 m /e glyphshow
77.160156 0 m /r glyphshow
81.271484 0 m /O glyphshow
89.142578 0 m /u glyphshow
95.480469 0 m /t glyphshow
99.401367 0 m /p glyphshow
105.749023 0 m /u glyphshow
112.086914 0 m /t glyphshow
116.007812 0 m /underscore glyphshow
121.007812 0 m /m glyphshow
130.749023 0 m /e glyphshow
136.901367 0 m /a glyphshow
143.029297 0 m /n glyphshow
149.367188 0 m /underscore glyphshow
154.367188 0 m /s glyphshow
159.577148 0 m /q glyphshow
165.924805 0 m /u glyphshow
172.262695 0 m /a glyphshow
178.390625 0 m /r glyphshow
182.251953 0 m /e glyphshow
188.404297 0 m /d glyphshow
194.751953 0 m /underscore glyphshow
199.751953 0 m /e glyphshow
205.904297 0 m /r glyphshow
209.890625 0 m /r glyphshow
213.751953 0 m /o glyphshow
219.870117 0 m /r glyphshow
grestore
0.173 0.627 0.173 setrgbcolor
gsave
437.285375 111.40575 m
457.285375 111.40575 l
stroke
grestore
0.000 setgray
gsave
465.285375 107.905750 translate
0.000000 rotate
0.000000 0 m /v glyphshow
5.917969 0 m /a glyphshow
12.045898 0 m /l glyphshow
14.824219 0 m /underscore glyphshow
19.824219 0 m /C glyphshow
26.806641 0 m /a glyphshow
32.934570 0 m /r glyphshow
37.045898 0 m /a glyphshow
43.173828 0 m /c glyphshow
48.671875 0 m /t glyphshow
52.592773 0 m /e glyphshow
58.745117 0 m /r glyphshow
62.856445 0 m /i glyphshow
65.634766 0 m /z glyphshow
70.883789 0 m /a glyphshow
77.011719 0 m /t glyphshow
80.932617 0 m /i glyphshow
83.710938 0 m /o glyphshow
89.829102 0 m /n glyphshow
96.166992 0 m /O glyphshow
104.038086 0 m /u glyphshow
110.375977 0 m /t glyphshow
114.296875 0 m /p glyphshow
120.644531 0 m /u glyphshow
126.982422 0 m /t glyphshow
130.903320 0 m /underscore glyphshow
135.903320 0 m /a glyphshow
142.031250 0 m /c glyphshow
147.529297 0 m /c glyphshow
153.027344 0 m /u glyphshow
159.365234 0 m /r glyphshow
163.476562 0 m /a glyphshow
169.604492 0 m /c glyphshow
175.102539 0 m /y glyphshow
grestore
0.839 0.153 0.157 setrgbcolor
gsave
437.285375 96.452625 m
457.285375 96.452625 l
stroke
grestore
0.000 setgray
gsave
465.285375 92.952625 translate
0.000000 rotate
0.000000 0 m /v glyphshow
5.917969 0 m /a glyphshow
12.045898 0 m /l glyphshow
14.824219 0 m /underscore glyphshow
19.824219 0 m /C glyphshow
26.806641 0 m /a glyphshow
32.934570 0 m /r glyphshow
37.045898 0 m /a glyphshow
43.173828 0 m /c glyphshow
48.671875 0 m /t glyphshow
52.592773 0 m /e glyphshow
58.745117 0 m /r glyphshow
62.856445 0 m /i glyphshow
65.634766 0 m /z glyphshow
70.883789 0 m /a glyphshow
77.011719 0 m /t glyphshow
80.932617 0 m /i glyphshow
83.710938 0 m /o glyphshow
89.829102 0 m /n glyphshow
96.166992 0 m /O glyphshow
104.038086 0 m /u glyphshow
110.375977 0 m /t glyphshow
114.296875 0 m /p glyphshow
120.644531 0 m /u glyphshow
126.982422 0 m /t glyphshow
130.903320 0 m /underscore glyphshow
135.903320 0 m /m glyphshow
145.644531 0 m /e glyphshow
151.796875 0 m /a glyphshow
157.924805 0 m /n glyphshow
164.262695 0 m /underscore glyphshow
169.262695 0 m /s glyphshow
174.472656 0 m /q glyphshow
180.820312 0 m /u glyphshow
187.158203 0 m /a glyphshow
193.286133 0 m /r glyphshow
197.147461 0 m /e glyphshow
203.299805 0 m /d glyphshow
209.647461 0 m /underscore glyphshow
214.647461 0 m /e glyphshow
220.799805 0 m /r glyphshow
224.786133 0 m /r glyphshow
228.647461 0 m /o glyphshow
234.765625 0 m /r glyphshow
grestore

end
showpage
